[INFO] ====== 	Dump Serialize Clause Data 	 ======
[CLAUSE 1]	8	37	38	
[CLAUSE 2]	6	11	36	
[CLAUSE 3]	11	17	31	
[CLAUSE 4]	14	33	41	
[CLAUSE 5]	15	20	27	
[CLAUSE 6]	19	25	34	
[CLAUSE 7]	10	34	38	
[CLAUSE 8]	18	30	33	
[CLAUSE 9]	11	22	29	
[CLAUSE 10]	21	26	36	
[CLAUSE 11]	7	22	24	
[CLAUSE 12]	13	17	35	
[CLAUSE 13]	2	28	37	
[CLAUSE 14]	20	31	39	
[CLAUSE 15]	24	36	39	
[CLAUSE 16]	8	14	17	
[CLAUSE 17]	8	17	19	
[CLAUSE 18]	14	31	34	
[CLAUSE 19]	15	24	29	
[CLAUSE 20]	16	21	23	
[CLAUSE 21]	4	23	31	
[CLAUSE 22]	2	12	18	
[CLAUSE 23]	23	35	40	
[CLAUSE 24]	18	26	31	
[CLAUSE 25]	15	24	35	
[CLAUSE 26]	5	37	40	
[CLAUSE 27]	8	24	40	
[CLAUSE 28]	22	28	38	
[CLAUSE 29]	9	33	36	
[CLAUSE 30]	3	35	39	
[CLAUSE 31]	20	27	30	
[CLAUSE 32]	25	27	29	
[CLAUSE 33]	15	24	29	
[CLAUSE 34]	15	20	32	
[CLAUSE 35]	12	14	20	
[CLAUSE 36]	28	33	40	
[CLAUSE 37]	22	34	39	
[CLAUSE 38]	2	15	41	
[CLAUSE 39]	11	24	30	
[CLAUSE 40]	9	19	27	
[CLAUSE 41]	15	23	24	
[CLAUSE 42]	11	17	38	
[CLAUSE 43]	2	32	34	
[CLAUSE 44]	29	31	40	
[CLAUSE 45]	9	20	26	
[CLAUSE 46]	14	20	28	
[CLAUSE 47]	11	18	40	
[CLAUSE 48]	2	20	39	
[CLAUSE 49]	3	31	33	
[CLAUSE 50]	6	23	32	
[CLAUSE 51]	8	21	31	
[CLAUSE 52]	7	8	31	
[CLAUSE 53]	21	22	33	
[CLAUSE 54]	11	17	24	
[CLAUSE 55]	13	24	28	
[CLAUSE 56]	2	12	22	
[CLAUSE 57]	3	11	27	
[CLAUSE 58]	5	15	24	
[CLAUSE 59]	2	38	41	
[CLAUSE 60]	5	17	27	
[CLAUSE 61]	8	30	36	
[CLAUSE 62]	18	23	28	
[CLAUSE 63]	5	13	31	
[CLAUSE 64]	10	25	31	
[CLAUSE 65]	10	13	34	
[CLAUSE 66]	10	27	39	
[CLAUSE 67]	3	28	40	
[CLAUSE 68]	18	30	35	
[CLAUSE 69]	11	37	38	
[CLAUSE 70]	16	21	25	
[CLAUSE 71]	9	28	37	
[CLAUSE 72]	19	26	30	
[CLAUSE 73]	3	11	18	
[CLAUSE 74]	20	29	39	
[CLAUSE 75]	8	18	40	
[CLAUSE 76]	5	19	38	
[CLAUSE 77]	11	26	35	
[CLAUSE 78]	4	21	37	
[CLAUSE 79]	6	22	37	
[CLAUSE 80]	14	19	34	
[CLAUSE 81]	7	13	31	
[CLAUSE 82]	5	6	27	
[CLAUSE 83]	5	6	24	
[CLAUSE 84]	5	7	34	
[CLAUSE 85]	31	33	40	
[CLAUSE 86]	11	35	39	
[CLAUSE 87]	22	37	41	
[CLAUSE 88]	2	11	19	
[CLAUSE 89]	18	34	39	
[CLAUSE 90]	5	24	34	
[CLAUSE 91]	8	11	33	
[INFO] ====== 	Dump serialize clause data finished	 ======
[INFO] ====== 	Dump Serialize Clause Data 	 ======
[CLAUSE 1]	39	40	
[CLAUSE 2]	38	40	
[INFO] ====== 	Dump serialize clause data finished	 ======
